workspace
20mm_cube.stl
1 0 0 0
0 1 0 0
0 0 1 0
0 0 0 1
obstacle
20mm_cube.stl
0.0125 0 0 1
0 0.25 0 1
0 0 0.2 1
0 0 0 1
obstacle
20mm_cube.stl
0.225 0 0 1.25
0 0.0125 0 1
0 0 0.2 1
0 0 0 1
obstacle
20mm_cube.stl
0.0125 0 0 5.75
0 0.25 0 1
0 0 0.2 1
0 0 0 1
obstacle
20mm_cube.stl
0.225 0 0 1.25
0 0.0125 0 5.75
0 0 0.2 1
0 0 0 1
obstacle
20mm_cube.stl
0.225 0 0 1.25
0 0.225 0 1.25
0 0 0.0125 1
0 0 0 1
obstacle
20mm_cube.stl
0.1 0 0 7
0 0.1 0 7
0 0 0.0999 1
0 0 0 1
obstacle
20mm_cube.stl
0.8 0 0 2
0 0.4 0 10
0 0 0.4 1
0 0 0 1
obstacle
20mm_cube.stl
1 0 0 0
0 1 0 0
0 0 0.05 0
0 0 0 1
