workspace
20mm_cube.stl
1 0 0 0
0 1 0 0
0 0 1 0
0 0 0 1
obstacle
20mm_cube.stl
0.1 0 0 9
0 0.1 0 9
0 0 0.1 9
0 0 0 1
obstacle
20mm_cube.stl
0.1 0 0 9
0 0.1 0 14
0 0 0.1 9
0 0 0 1
obstacle
20mm_cube.stl
0.1 0 0 14
0 0.1 0 14
0 0 0.1 14
0 0 0 1
obstacle
20mm_cube.stl
0.1 0 0 9
0 0.1 0 14
0 0 0.1 14
0 0 0 1
obstacle
20mm_cube.stl
0.1 0 0 14
0 0.1 0 9
0 0 0.1 14
0 0 0 1
obstacle
20mm_cube.stl
0.1 0 0 9
0 0.1 0 9
0 0 0.1 14
0 0 0 1
obstacle
20mm_cube.stl
0.1 0 0 4
0 0.1 0 9
0 0 0.1 14
0 0 0 1
obstacle
20mm_cube.stl
0.1 0 0 4
0 0.1 0 14
0 0 0.1 14
0 0 0 1
obstacle
20mm_cube.stl
0.1 0 0 9
0 0.1 0 11.5
0 0 0.1 11.5
0 0 0 1
