16,28,29
16,28,29
16,28,29
16,28,29
22,16,36
16,36,29
22,16,36
16,36,29
22,16,36
16,36,29
22,16,36
16,36,29
23,37,38
23,37,38
23,22,37
22,37,36
23,22,37
22,37,36
23,37,38
23,37,38
23,22,37
22,37,36
23,22,37
22,37,36
22,16,36
16,36,29
22,16,36
16,36,29
22,16,36
16,36,29
22,16,36
16,36,29
23,37,38
23,37,38
23,22,37
22,37,36
23,22,37
22,37,36
23,37,38
23,37,38
23,22,37
22,37,36
23,22,37
22,37,36
27,43,44
27,43,44
27,26,43
26,43,42
27,26,43
26,43,42
27,43,44
27,43,44
27,26,43
26,43,42
27,26,43
26,43,42
28,29,37
16,60,61
16,60,62
16,22,62
22,62,63
22,62,63
22,23,63
23,63,64
23,63,64
16,65,61
16,28,65
28,65,66
28,65,66
16,65,61
16,28,65
28,65,66
28,65,66
16,65,61
16,28,65
28,65,66
28,65,66
16,65,61
16,28,65
28,65,66
28,65,66
26,42,67
42,67,68
42,67,68
42,69,68
26,42,67
42,67,68
42,67,68
42,69,68
26,42,67
42,67,68
42,67,68
42,69,68
26,42,67
42,67,68
42,67,68
42,69,68
37,38,70
38,70,71
38,70,71
28,37,72
37,72,70
37,72,70
28,72,66
65,120,121
60,65,122
60,61,65
68,64,63
65,66,120
66,124,123
68,63,120
63,120,121
63,122,121
65,122,121
68,120,123
66,120,123
69,68,124
68,124,123
