4,8,9
4,8,9
5,4,10
4,10,8
5,4,10
4,10,8
4,5,28
5,28,29
5,28,29
4,30,28
4,5,28
5,28,29
5,28,29
4,30,28
4,31,30
4,31,30
4,9,32
9,32,33
9,32,33
4,34,32
4,9,32
9,32,33
9,32,33
4,34,32
4,9,32
9,32,33
9,32,33
4,34,32
4,9,32
9,32,33
9,32,33
4,34,32
4,35,31
4,35,31
4,35,34
4,35,34
4,35,31
4,35,31
4,35,34
4,35,34
5,36,29
5,36,29
5,10,37
10,37,38
10,37,38
5,37,36
5,10,37
10,37,38
10,37,38
5,37,36
5,36,29
5,36,29
5,10,37
10,37,38
10,37,38
5,37,36
5,10,37
10,37,38
10,37,38
5,37,36
9,39,40
9,39,40
8,9,41
9,41,40
9,41,40
8,42,41
8,9,41
9,41,40
9,41,40
8,42,41
8,10,43
10,43,44
10,43,44
8,43,42
8,10,43
10,43,44
10,43,44
8,43,42
9,39,33
9,39,33
37,38,70
28,37,72
28,29,37
28,72,66
40,31,30
40,32,31
40,33,32
40,105,106
38,70,71
40,107,106
37,72,70
30,40,108
30,108,100
71,70,105
70,105,106
71,70,105
70,105,106
72,130,131
70,107,106
72,130,131
70,107,106
72,108,130
40,108,107
72,66,108
66,108,100
72,108,130
40,108,107
72,66,108
66,108,100
107,70,130
70,130,131
107,70,130
70,130,131
107,70,130
70,130,131
107,70,130
70,130,131
107,130,132
108,130,132
107,130,132
108,130,132
107,130,132
108,130,132
107,130,132
108,130,132
