hpath
0.071534
0.166602
7.588295060295658
34.9031137444438
1.0
spath
0.000115
0.238267
4.795862043214744
24.238882009711645
1.0
rpath
3.9e-05
0.005283
2.928333401625011
19.873466819632924
1.0
bpath
4.1e-05
1.00012
4.5713774084056515
25.779110004800625
1.0
